Combining Excel and Delimited Data – Homework 4 Site
…
if (!file.exists(white_xlsx_path)) {
  download.file(white_xlsx_url, destfile = white_xlsx_path, mode = "wb")
}
white_xlsx_path

[1] "data/white-wine.xlsx"

1a) Import the first sheet and print the tibble

white_wine <- read_excel(white_xlsx_path, sheet = 1)
white_wine

# A tibble: 4,898 × 12
   `fixed acidity` `volatile acidity` `citric acid` `residual sugar` chlorides
             <dbl>              <dbl>         <dbl>            <dbl>     <dbl>
 1               7               0.27          0.36             20.7     0.045
 2              63               0.3           0.34              1.6     0.049
 3              81               0.28          0.4               6.9     0.05 
 4              72               0.23          0.32              8.5     0.058
 5              72               0.23          0.32              8.5     0.058
 6              81               0.28          0.4               6.9     0.05 
 7              62               0.32          0.16              7       0.045
 8               7               0.27          0.36             20.7     0.045
 9              63               0.3           0.34              1.6     0.049
10              81               0.22          0.43              1.5     0.044
# ℹ 4,888 more rows
# ℹ 7 more variables: `free sulfur dioxide` <dbl>,
#   `total sulfur dioxide` <dbl>, density <dbl>, pH <dbl>, sulphates <dbl>,
#   alcohol <dbl>, quality <dbl>
…
3) Combine the two data sets

Use dplyr::bind_rows() to stack them.

wine <- dplyr::bind_rows(white_wine, red_wine) |> as_tibble()
wine

# A tibble: 6,497 × 13
   fixed_acidity volatile_acidity citric_acid residual_sugar chlorides
           <dbl>            <dbl>       <dbl>          <dbl>     <dbl>
 1             7             0.27        0.36           20.7     0.045
 2            63             0.3         0.34            1.6     0.049
 3            81             0.28        0.4             6.9     0.05 
 4            72             0.23        0.32            8.5     0.058
 5            72             0.23        0.32            8.5     0.058
 6            81             0.28        0.4             6.9     0.05 
 7            62             0.32        0.16            7       0.045
 8             7             0.27        0.36           20.7     0.045
 9            63             0.3         0.34            1.6     0.049
10            81             0.22        0.43            1.5     0.044
# ℹ 6,487 more rows
# ℹ 8 more variables: free_sulfur_dioxide <dbl>, total_sulfur_dioxide <dbl>,
#   density <dbl>, pH <dbl>, sulphates <dbl>, alcohol <dbl>, quality <dbl>,
#   type <chr>
…
The assignment asks to keep high‑quality wines and those with a reasonable alcohol value.

Set the thresholds below; adjust if your instructor specified slightly different cutoffs.

quality_threshold <- 6.5
alcohol_upper     <- 13.2   # if your spec says 13, set to 13

wine_filtered <- wine |>
  filter(quality > quality_threshold, alcohol < alcohol_upper) |>
  arrange(desc(quality))

wine_filtered

# A tibble: 365 × 13
   fixed_acidity volatile_acidity citric_acid residual_sugar chlorides
           <dbl>            <dbl>       <dbl>          <dbl>     <dbl>
 1            62             0.24        0.29          13.3      0.039
 2            73             0.21        0.29           1.6      0.034
 3            73             0.21        0.29           1.6      0.034
 4            53             0.24        0.33           1.3      0.033
 5            68             0.35        0.32           2.4      0.048
 6            64             0.15        0.36           1.8      0.034
 7            64             0.15        0.36           1.8      0.034
 8            68             0.46        0.26           2.7      0.042
 9            65             0.44        0.47           5.45     0.014
10            55             0.34        0.26           2.2      0.021
# ℹ 355 more rows
# ℹ 8 more variables: free_sulfur_dioxide <dbl>, total_sulfur_dioxide <dbl>,
#   density <dbl>, pH <dbl>, sulphates <dbl>, alcohol <dbl>, quality <dbl>,
#   type <chr>

5) Select columns: those containing "acid", plus alcohol, type, and quality

wine_selected <- wine_filtered |>
  select(contains("acid"), alcohol, type, quality)

wine_selected

# A tibble: 365 × 6
   fixed_acidity volatile_acidity citric_acid alcohol type  quality
           <dbl>            <dbl>       <dbl>   <dbl> <chr>   <dbl>
 1            62             0.24        0.29      11 white       8
 2            73             0.21        0.29      11 white       8
 3            73             0.21        0.29      11 white       8
 4            53             0.24        0.33      11 white       8
 5            68             0.35        0.32      12 white       8
 6            64             0.15        0.36      11 white       8
 7            64             0.15        0.36      11 white       8
 8            68             0.46        0.26      12 white       8
 9            65             0.44        0.47      13 white       8
10            55             0.34        0.26      13 white       8
# ℹ 355 more rows
6) Add mean and standard deviation of alcohol for each quality level

Use group_by(quality) and mutate() so the per‑quality stats are added to every row of that group.

wine_with_stats <- wine_selected |>
  group_by(quality) |>
  mutate(
    alcohol_mean = mean(alcohol, na.rm = TRUE),
    alcohol_sd   = sd(alcohol, na.rm = TRUE)
  ) |>
  ungroup()

wine_with_stats

# A tibble: 365 × 8
   fixed_acidity volatile_acidity citric_acid alcohol type  quality alcohol_mean
           <dbl>            <dbl>       <dbl>   <dbl> <chr>   <dbl>        <dbl>
 1            62             0.24        0.29      11 white       8         11.9
 2            73             0.21        0.29      11 white       8         11.9
 3            73             0.21        0.29      11 white       8         11.9
 4            53             0.24        0.33      11 white       8         11.9
 5            68             0.35        0.32      12 white       8         11.9
 6            64             0.15        0.36      11 white       8         11.9
 7            64             0.15        0.36      11 white       8         11.9
 8            68             0.46        0.26      12 white       8         11.9
 9            65             0.44        0.47      13 white       8         11.9
10            55             0.34        0.26      13 white       8         11.9
# ℹ 355 more rows
# ℹ 1 more variable: alcohol_sd <dbl>
…
