Reading Delimited Data – Homework 4 Site
…
A3) Keep only observations meeting given conditions

Example filter used here (adjust to your assignment’s exact thresholds if needed):

keep rows where RI < 1.52 and class is either "tableware" or "headlamp".

glass_filtered <- glass |>
  filter(RI < 1.52, class %in% c("tableware", "headlamp")) |>
  select(-class_id)

glass_filtered |>
  arrange(class, RI) |>
  print(n = 20)

# A tibble: 34 × 11
      Id    RI    Na    Mg    Al    Si     K    Ca    Ba    Fe class    
   <dbl> <dbl> <dbl> <dbl> <dbl> <dbl> <dbl> <dbl> <dbl> <dbl> <fct>    
 1   185  1.51  17.4  0     0.34  75.4  0     6.65  0     0    tableware
 2   181  1.51  14.4  1.74  1.54  74.6  0     7.59  0     0    tableware
 3   179  1.52  14.5  2.24  1.62  72.4  0     9.26  0     0    tableware
 4   180  1.52  14.1  2.19  1.66  72.7  0     9.32  0     0    tableware
 5   182  1.52  15.0  0.78  1.74  72.5  0     9.95  0     0    tableware
 6   177  1.52  14    2.39  1.56  72.4  0     9.57  0     0    tableware
 7   183  1.52  14.2  0     2.09  72.7  0    10.9   0     0    tableware
 8   178  1.52  13.8  2.41  1.19  72.8  0     9.77  0     0    tableware
 9   184  1.52  14.6  0     0.56  73.5  0    11.2   0     0    tableware
10   186  1.51  13.7  3.2   1.81  72.8  1.76  5.43  1.19  0    headlamp 
11   201  1.52  15.2  0     2.25  73.5  0     8.34  0.63  0    headlamp 
12   203  1.52  14.8  0     2.42  73.7  0     8.39  0.56  0    headlamp 
13   199  1.52  14.4  0     2.66  73.1  0.04  9.08  0.64  0    headlamp 
14   196  1.52  14.1  0     2.68  73.4  0.08  9.07  0.61  0.05 headlamp 
15   197  1.52  13.9  0     2.54  73.2  0.14  9.41  0.81  0.01 headlamp 
16   192  1.52  14.8  0     2.38  73.3  0     8.76  0.64  0.09 headlamp 
17   200  1.52  15.0  0     2.51  73.0  0.05  8.83  0.53  0    headlamp 
18   191  1.52  13.9  1.78  1.79  73.1  0     8.67  0.76  0    headlamp 
19   205  1.52  15.0  0     2.27  73.3  0     8.71  0.67  0    headlamp 
20   193  1.52  14.2  0     2.79  73.5  0.04  9.04  0.4   0.09 headlamp 
# ℹ 14 more rows
…
